Get claims regarding one Wikidata thing — get_claims • glitter
…
get_claims(id, with_labels = FALSE)

    Arguments

    id
a Wikidata ID, either of an item ("wd:Qxxxxx") or of a property ("wdt:Pxxxxx"), or the item itself.

with_labels
Whether to keep labels (Boolean)

    Examples

get_claims("wd:Q431603")
#> # A tibble: 25 × 7
#>    property         propertyLabel value valueLabel propertyType propertyDescrip…
#>    <chr>            <chr>         <chr> <chr>      <chr>        <chr>           
#>  1 http://www.wiki… NA            4120… 4120500-5  NA           NA              
#>  2 http://www.wiki… NA            sh85… sh85106541 NA           NA              
#>  3 http://www.wiki… NA            http… organizat… NA           NA              
#>  4 http://www.wiki… NA            http… non-gover… NA           NA              
#>  5 http://www.wiki… NA            http… lobbying   NA           NA              
#>  6 http://www.wiki… NA            Advo… Advocacy … NA           NA              
#>  7 http://www.wiki… NA            /m/0… /m/03tp2y  NA           NA              
#>  8 http://www.wiki… NA            http… Category:… NA           NA              
#>  9 http://www.wiki… NA            http… trade ass… NA           NA              
#> 10 http://www.wiki… NA            topi… topic/int… NA           NA              
#> # … with 15 more rows, and 1 more variable: propertyAltLabel <chr>
…
