Get coords at lat-lng from Wikidata format — transform_wikidata_coords • glitter
…
    Examples

query='SELECT ?item ?itemLabel ?coords ?date
{
  ?item wdt:P361 wd:Q1552;
        wdt:P625 ?coords.
  OPTIONAL{?item wdt:P1619 ?date.}
  SERVICE wikibase:label { bd:serviceParam wikibase:language "en" . }
} ORDER BY ?itemLabel
'
tib=send_sparql(query)
transform_wikidata_coords(tib, "coords")
#> # A tibble: 46 × 5
#>    item                                itemLabel date                  lat   lng
#>    <chr>                               <chr>     <dttm>              <dbl> <dbl>
#>  1 http://www.wikidata.org/entity/Q55… Q55598901 NA                   45.7  4.80
#>  2 http://www.wikidata.org/entity/Q56… Q56300135 NA                   45.7  4.80
#>  3 http://www.wikidata.org/entity/Q21… Ampère -… 1978-05-02 00:00:00  45.8  4.83
#>  4 http://www.wikidata.org/entity/Q52… Bellecour 1978-05-02 00:00:00  45.8  4.83
#>  5 http://www.wikidata.org/entity/Q19… Brotteaux 1978-05-02 00:00:00  45.8  4.86
#>  6 http://www.wikidata.org/entity/Q25… Charpenn… 1978-05-02 00:00:00  45.8  4.86
#>  7 http://www.wikidata.org/entity/Q77… Cordelie… 1978-05-02 00:00:00  45.8  4.84
#>  8 http://www.wikidata.org/entity/Q19… Croix-Pa… 1891-04-12 00:00:00  45.8  4.84
#>  9 http://www.wikidata.org/entity/Q27… Croix-Ro… 1891-04-12 00:00:00  45.8  4.83
#> 10 http://www.wikidata.org/entity/Q20… Cuire     1984-12-10 00:00:00  45.8  4.83
#> # … with 36 more rows
…
