glitter for HAL (en français) • glitter
…
docs_LV

## # A tibble: 106 × 4
##    citation                                         date  type_label affiliation
##    <chr>                                            <chr> <chr>      <chr>      
##  1 "Lise Vaudor, E. Parrot, Hervé Piégay. Describi… 2013  Poster de… Plateforme…
##  2 "Lise Vaudor, Sébastien Rey-Coyrehourcq, Fabien… 2018  Note de l… Environnem…
##  3 "Lise Vaudor, Hervé Piégay, Vincent Wawrzyniak,… 2016  Communica… Environnem…
##  4 "Véronique Benacchio, Hervé Piégay, Thomas Buff… 2017  Article d… Environnem…
##  5 "V. Benacchio, Hervé Piégay, Thomas Buffin-Bela… 2014  Communica… Environnem…
##  6 "Thomas Buhler, Emeline Comby, Lise Vaudor, Thi… 2021  Article d… Environnem…
##  7 "Matthieu Adam, Marylise Cottet, Sylvie Morarde… 2020  Article d… Environnem…
##  8 "Bastien Bonef, Lionel Gérard, Jean-Luc Rouvièr… 2015  Article d… Nanophysiq…
##  9 "Hervé Piégay, Fanny Arnaud, Cassel Mathieu, Th… 2016  Article d… Environnem…
## 10 "Jérémie Riquier, Hervé Piégay, Nicolas Lamouro… 2016  Communica… Environnem…
## # ℹ 96 more rows
…
Intéressons-nous maintenant aux publications issues d’un
laboratoire. Ici, nous avons choisi le laboratoire
“Environnement Ville Société”, alias “EVS” ou encore “UMR 5600”.

Essayons de le retrouver dans la base de données:

labo_EVS = hal_basic_request %>%
    spq_label(labo, .languages = NULL, .required = TRUE) %>%
    spq_add("?labo dcterms:identifier ?labo_id", .required = FALSE) %>%
    spq_filter(str_detect(labo_label,"EVS|(UMR 5600)|(Environnement Ville Soc)")) %>%
    spq_perform()
labo_EVS

## # A tibble: 21 × 3
##    labo                                               labo_label         labo_id
##    <chr>                                              <chr>              <chr>  
##  1 https://data.archives-ouvertes.fr/revue/36364      REVSTAT - Statist… <NA>   
##  2 https://data.archives-ouvertes.fr/revue/115361     Issue 4 of SCS Tr… <NA>   
##  3 https://data.archives-ouvertes.fr/structure/54063  GEVSM              <NA>   
##  4 https://data.archives-ouvertes.fr/structure/145345 Environnement Vil… UMR5600
##  5 https://data.archives-ouvertes.fr/structure/390864 UMR 5600 EVS       <NA>   
##  6 https://data.archives-ouvertes.fr/structure/458855 Plateforme ISIG. … <NA>   
##  7 https://data.archives-ouvertes.fr/structure/493368 Environnement Vil… <NA>   
##  8 https://data.archives-ouvertes.fr/structure/516259 UMR CNRS 5600 EVS… <NA>   
##  9 https://data.archives-ouvertes.fr/structure/516301 Environnement Vil… <NA>   
## 10 https://data.archives-ouvertes.fr/structure/520344 EVS-LAURE          UMR 56…
## # ℹ 11 more rows
…
