glitter for HAL • glitter
…
tib_dat=spq_init() %>% 
  spq_add("?document dcterms:hasVersion ?version") %>% 
  spq_add("?version dcterms:creator ?creator") %>%
  spq_add(". dcterms:issued ?date") %>%                      # ?version est sortie à ?date
  spq_add("?creator hal:person {fabien_gandon}") %>% 
  spq_mutate(year = year(date)) %>%                    # Crée ?year = année de ?date
  spq_group_by(year) %>%                               # Groupe par ?year
  spq_summarise(nbdoc = n(unique(document))) %>% 
  spq_arrange(year) %>% 
  spq_perform(e="hal")

tib_dat

## # A tibble: 24 × 2
##    year  nbdoc
##    <chr> <chr>
##  1 1999  1    
##  2 2000  3    
##  3 2001  5    
##  4 2002  11   
##  5 2003  6    
##  6 2004  7    
##  7 2005  7    
##  8 2006  9    
##  9 2007  5    
## 10 2008  9    
## # … with 14 more rows
…
query_autNbDocYear=query_aut %>% 
  spq_add("?version dcterms:creator ?creator") %>%      # ?version a pour créateur ?creator
  spq_add("?creator hal:person ?forme") %>%             # ?creator est une personne ?forme
  spq_add("?version dcterms:issued ?date") %>%          # ?version a été publié à ?date
  spq_add("?document dcterms:hasVersion ?version") %>%  # ?document a pour versions ?version
  spq_mutate(year = year(date)) %>%              # Ajoute ?year qui correspond à l'année de ?date
  spq_group_by(year) %>%                          # Groupe par ?year
  spq_arrange(year) %>%                              # Ordonne par ordre décroissant de ?year
  spq_summarise(nbdoc = n(unique(document)))

tib_autNbDocYear=spq_perform(query_autNbDocYear,"hal")

tib_autNbDocYear

## # A tibble: 24 × 2
##    year  nbdoc
##    <chr> <chr>
##  1 1999  1    
##  2 2000  3    
##  3 2001  5    
##  4 2002  11   
##  5 2003  6    
##  6 2004  7    
##  7 2005  7    
##  8 2006  9    
##  9 2007  5    
## 10 2008  9    
## # … with 14 more rows
…
